#The word of "Default" must not be removed
Default
CountryRegion=1
CountryRegionABand=1
CountryCode=GB
ChannelGeography=1
SSID=
NetworkType=Infra
WirelessMode=14
EfuseBufferMode=0
Channel=0
BeaconPeriod=100
TxPower=100
BGProtection=0
TxPreamble=0
RTSThreshold=2347
FragThreshold=2346
TxBurst=1
PktAggregate=0
WmmCapable=0
AckPolicy=0;0;0;0
AuthMode=OPEN
EncrypType=NONE
WPAPSK=
DefaultKeyID=1
Key1Type=0
Key1Str=
Key2Type=0
Key2Str=
Key3Type=0
Key3Str=
Key4Type=0
Key4Str=
PSMode=CAM
AutoRoaming=0
RoamThreshold=70
APSDCapable=0
APSDAC=0;0;0;0
HT_RDG=1
HT_EXTCHA=0
HT_OpMode=0
HT_MpduDensity=4
HT_BW=1
HT_BADecline=0
HT_AutoBA=1
HT_AMSDU=0
HT_BAWinSize=64
HT_GI=1
HT_MCS=33
HT_MIMOPSMode=3
HT_DisallowTKIP=1
HT_STBC=0
VHT_BW=1
VHT_SGI=1
VHT_STBC=0
EthConvertMode=
EthCloneMac=
IEEE80211H=0
TGnWifiTest=0
WirelessEvent=0
MeshId=MESH
MeshAutoLink=1
MeshAuthMode=OPEN
MeshEncrypType=NONE
MeshWPAKEY=
MeshDefaultkey=1
MeshWEPKEY=
CarrierDetect=0
AntDiversity=0
BeaconLostTime=4
FtSupport=0
Wapiifname=ra0
WapiPsk=
WapiPskType=
WapiUserCertPath=
WapiAsCertPath=
PSP_XLINK_MODE=0
WscManufacturer=
WscModelName=
WscDeviceName=
WscModelNumber=
WscSerialNumber=
RadioOn=1
WIDIEnable=1
P2P_L2SD_SCAN_TOGGLE=3
Wsc4digitPinCode=0
P2P_WIDIEnable=0
PMFMFPC=0
PMFMFPR=0
PMFSHA256=0
